Análisis, Visualización y Descomposición
…
Datos

amzn_csv <- read.csv("AMZN.csv")

amzn_csv$Date = ymd(amzn_csv$Date)

amzn <- amzn_csv %>% 
  as_tsibble(index = Date)
amzn

# A tsibble: 6,037 x 7 [1D]
   Date        Open  High   Low Close Adj.Close    Volume
   <date>     <dbl> <dbl> <dbl> <dbl>     <dbl>     <int>
 1 2000-01-03  4.08  4.48  3.95  4.47      4.47 322352000
 2 2000-01-04  4.27  4.58  4.09  4.10      4.10 349748000
 3 2000-01-05  3.52  3.76  3.4   3.49      3.49 769148000
 4 2000-01-06  3.57  3.63  3.2   3.28      3.28 375040000
 5 2000-01-07  3.35  3.52  3.31  3.48      3.48 210108000
 6 2000-01-10  3.63  3.63  3.28  3.46      3.46 295158000
 7 2000-01-11  3.34  3.5   3.25  3.34      3.34 210654000
 8 2000-01-12  3.39  3.4   3.15  3.18      3.18 216090000
 9 2000-01-13  3.25  3.36  3.16  3.30      3.30 208962000
10 2000-01-14  3.34  3.43  3.2   3.21      3.21 137072000
# ℹ 6,027 more rows
…
